…
    group_by(NAME) %>%
    nest %>%
    mutate(
           geometry = map(.x = data, ~.x[['geometry']]),
           neighbors = map(.x = data, .f = my_nb), # creates a list col of
the neighbors
           weights = map(.x = data, .f = add_weights), # creates a weights
object (class=wt, is this a sparse matrix in spdep?)
           test_moran = map2(.x = data, .y =  weights, .f = my_moran), #
creates list of Moran's I and sample kurtosis of x
           test_geary = map2(.x = data, .y = weights, .f = my_geary) #
creates list of Geary's C and sample kurtosis of x
               )

#> # A tibble: 100 x 7
#>           NAME              data         geometry  neighbors  weights
test_moran test_geary
#>        <fctr>            <list>           <list>     <list>   <list>
<list>     <list>
#>  1        Ashe <tibble [1 x 14]> <simple_feature> <list [2]> <S3: wt>
<list [2]> <list [2]>
#>  2   Alleghany <tibble [1 x 14]> <simple_feature> <list [5]> <S3: wt>
<list [2]> <list [2]>
#>  3       Surry <tibble [1 x 14]> <simple_feature> <list [4]> <S3: wt>
<list [2]> <list [2]>
#>  4   Currituck <tibble [1 x 14]> <simple_feature> <list [2]> <S3: wt>
<list [2]> <list [2]>
#>  5 Northampton <tibble [1 x 14]> <simple_feature> <list [3]> <S3: wt>
<list [2]> <list [2]>
#>  6    Hertford <tibble [1 x 14]> <simple_feature> <list [6]> <S3: wt>
<list [2]> <list [2]>
#>  7      Camden <tibble [1 x 14]> <simple_feature> <list [5]> <S3: wt>
<list [2]> <list [2]>
#>  8       Gates <tibble [1 x 14]> <simple_feature> <list [2]> <S3: wt>
<list [2]> <list [2]>
#>  9      Warren <tibble [1 x 14]> <simple_feature> <list [5]> <S3: wt>
<list [2]> <list [2]>
#> 10      Stokes <tibble [1 x 14]> <simple_feature> <list [2]> <S3: wt>
<list [2]> <list [2]>
#> # ... with 90 more rows
…
>    group_by(NAME) %>%
>    nest %>%
>    mutate(
>           geometry = map(.x = data, ~.x[['geometry']]),
>           neighbors = map(.x = data, .f = my_nb), # creates a list col of
> the neighbors
>           weights = map(.x = data, .f = add_weights), # creates a weights
> object (class=wt, is this a sparse matrix in spdep?)
>           test_moran = map2(.x = data, .y =  weights, .f = my_moran), #
> creates list of Moran's I and sample kurtosis of x
>           test_geary = map2(.x = data, .y = weights, .f = my_geary) #
> creates list of Geary's C and sample kurtosis of x
>               )
>
> #> # A tibble: 100 x 7
> #>           NAME              data         geometry  neighbors  weights
> test_moran test_geary
> #>        <fctr>            <list>           <list>     <list>   <list>
> <list>     <list>
> #>  1        Ashe <tibble [1 x 14]> <simple_feature> <list [2]> <S3: wt>
> <list [2]> <list [2]>
> #>  2   Alleghany <tibble [1 x 14]> <simple_feature> <list [5]> <S3: wt>
> <list [2]> <list [2]>
> #>  3       Surry <tibble [1 x 14]> <simple_feature> <list [4]> <S3: wt>
> <list [2]> <list [2]>
> #>  4   Currituck <tibble [1 x 14]> <simple_feature> <list [2]> <S3: wt>
> <list [2]> <list [2]>
> #>  5 Northampton <tibble [1 x 14]> <simple_feature> <list [3]> <S3: wt>
> <list [2]> <list [2]>
> #>  6    Hertford <tibble [1 x 14]> <simple_feature> <list [6]> <S3: wt>
> <list [2]> <list [2]>
> #>  7      Camden <tibble [1 x 14]> <simple_feature> <list [5]> <S3: wt>
> <list [2]> <list [2]>
> #>  8       Gates <tibble [1 x 14]> <simple_feature> <list [2]> <S3: wt>
> <list [2]> <list [2]>
> #>  9      Warren <tibble [1 x 14]> <simple_feature> <list [5]> <S3: wt>
> <list [2]> <list [2]>
> #> 10      Stokes <tibble [1 x 14]> <simple_feature> <list [2]> <S3: wt>
> <list [2]> <list [2]>
> #> # ... with 90 more rows
…
> >    group_by(NAME) %>%
> >    nest %>%
> >    mutate(
> >           geometry = map(.x = data, ~.x[['geometry']]),
> >           neighbors = map(.x = data, .f = my_nb), # creates a list col of
> > the neighbors
> >           weights = map(.x = data, .f = add_weights), # creates a weights
> > object (class=wt, is this a sparse matrix in spdep?)
> >           test_moran = map2(.x = data, .y =  weights, .f = my_moran), #
> > creates list of Moran's I and sample kurtosis of x
> >           test_geary = map2(.x = data, .y = weights, .f = my_geary) #
> > creates list of Geary's C and sample kurtosis of x
> >               )
> >
> > #> # A tibble: 100 x 7
> > #>           NAME              data         geometry  neighbors  weights
> > test_moran test_geary
> > #>        <fctr>            <list>           <list>     <list>   <list>
> > <list>     <list>
> > #>  1        Ashe <tibble [1 x 14]> <simple_feature> <list [2]> <S3: wt>
> > <list [2]> <list [2]>
> > #>  2   Alleghany <tibble [1 x 14]> <simple_feature> <list [5]> <S3: wt>
> > <list [2]> <list [2]>
> > #>  3       Surry <tibble [1 x 14]> <simple_feature> <list [4]> <S3: wt>
> > <list [2]> <list [2]>
> > #>  4   Currituck <tibble [1 x 14]> <simple_feature> <list [2]> <S3: wt>
> > <list [2]> <list [2]>
> > #>  5 Northampton <tibble [1 x 14]> <simple_feature> <list [3]> <S3: wt>
> > <list [2]> <list [2]>
> > #>  6    Hertford <tibble [1 x 14]> <simple_feature> <list [6]> <S3: wt>
> > <list [2]> <list [2]>
> > #>  7      Camden <tibble [1 x 14]> <simple_feature> <list [5]> <S3: wt>
> > <list [2]> <list [2]>
> > #>  8       Gates <tibble [1 x 14]> <simple_feature> <list [2]> <S3: wt>
> > <list [2]> <list [2]>
> > #>  9      Warren <tibble [1 x 14]> <simple_feature> <list [5]> <S3: wt>
> > <list [2]> <list [2]>
> > #> 10      Stokes <tibble [1 x 14]> <simple_feature> <list [2]> <S3: wt>
> > <list [2]> <list [2]>
> > #> # ... with 90 more rows
…
>>>    group_by(NAME) %>%
>>>    nest %>%
>>>    mutate(
>>>           geometry = map(.x = data, ~.x[['geometry']]),
>>>           neighbors = map(.x = data, .f = my_nb), # creates a list col of
>>> the neighbors
>>>           weights = map(.x = data, .f = add_weights), # creates a weights
>>> object (class=wt, is this a sparse matrix in spdep?)
>>>           test_moran = map2(.x = data, .y =  weights, .f = my_moran), #
>>> creates list of Moran's I and sample kurtosis of x
>>>           test_geary = map2(.x = data, .y = weights, .f = my_geary) #
>>> creates list of Geary's C and sample kurtosis of x
>>>               )
>>>
>>> #> # A tibble: 100 x 7
>>> #>           NAME              data         geometry  neighbors  weights
>>> test_moran test_geary
>>> #>        <fctr>            <list>           <list>     <list>   <list>
>>> <list>     <list>
>>> #>  1        Ashe <tibble [1 x 14]> <simple_feature> <list [2]> <S3: wt>
>>> <list [2]> <list [2]>
>>> #>  2   Alleghany <tibble [1 x 14]> <simple_feature> <list [5]> <S3: wt>
>>> <list [2]> <list [2]>
>>> #>  3       Surry <tibble [1 x 14]> <simple_feature> <list [4]> <S3: wt>
>>> <list [2]> <list [2]>
>>> #>  4   Currituck <tibble [1 x 14]> <simple_feature> <list [2]> <S3: wt>
>>> <list [2]> <list [2]>
>>> #>  5 Northampton <tibble [1 x 14]> <simple_feature> <list [3]> <S3: wt>
>>> <list [2]> <list [2]>
>>> #>  6    Hertford <tibble [1 x 14]> <simple_feature> <list [6]> <S3: wt>
>>> <list [2]> <list [2]>
>>> #>  7      Camden <tibble [1 x 14]> <simple_feature> <list [5]> <S3: wt>
>>> <list [2]> <list [2]>
>>> #>  8       Gates <tibble [1 x 14]> <simple_feature> <list [2]> <S3: wt>
>>> <list [2]> <list [2]>
>>> #>  9      Warren <tibble [1 x 14]> <simple_feature> <list [5]> <S3: wt>
>>> <list [2]> <list [2]>
>>> #> 10      Stokes <tibble [1 x 14]> <simple_feature> <list [2]> <S3: wt>
>>> <list [2]> <list [2]>
>>> #> # ... with 90 more rows
…
