…
Hi,

You will be hard pressed to get helpful answers as you have not provided any way for list readers to replicate your data and code.  Check out this https://rseek.org/?q=reproducible+example

On the other hand, ...

(1)  I have a hunch that one place you are getting tripped up by your effort to treat IDT as a regular data.frame.  In fact, read_excel(), I'm guessing from the readxl package, returns a tibble.  When you subset a tibble like you have with...

leq <- IDT[,1]

... you get a 1-column tibble...

> leq
# A tibble: 208 x 1
   SymbolSeries
   <chr>       
 1 ACCEQ       
 2 ADANIENTEQ  
 3 ADANIPORTSEQ
 4 ADANIPOWEREQ
 5 AJANTPHARMEQ
 6 ALBKEQ      
 7 AMARAJABATEQ
 8 AMBUJACEMEQ 
 9 ANDHRABANKEQ
10 APOLLOHOSPEQ
# ... with 198 more rows
…
    Hi,
    
    You will be hard pressed to get helpful answers as you have not provided any way for list readers to replicate your data and code.  Check out this https://rseek.org/?q=reproducible+example
    
    On the other hand, ...
    
    (1)  I have a hunch that one place you are getting tripped up by your effort to treat IDT as a regular data.frame.  In fact, read_excel(), I'm guessing from the readxl package, returns a tibble.  When you subset a tibble like you have with...
    
    leq <- IDT[,1]
    
    ... you get a 1-column tibble...
    
    > leq
    # A tibble: 208 x 1
       SymbolSeries
       <chr>       
     1 ACCEQ       
     2 ADANIENTEQ  
     3 ADANIPORTSEQ
     4 ADANIPOWEREQ
     5 AJANTPHARMEQ
     6 ALBKEQ      
     7 AMARAJABATEQ
     8 AMBUJACEMEQ 
     9 ANDHRABANKEQ
    10 APOLLOHOSPEQ
    # ... with 198 more rows
…
Hi,

You will be hard pressed to get helpful answers as you have not provided any way for list readers to replicate your data and code.  Check out this https://rseek.org/?q=reproducible+example

On the other hand, ...

(1)  I have a hunch that one place you are getting tripped up by your effort to treat IDT as a regular data.frame.  In fact, read_excel(), I'm guessing from the readxl package, returns a tibble.  When you subset a tibble like you have with...

leq <- IDT[,1]

... you get a 1-column tibble...

> leq
# A tibble: 208 x 1
   SymbolSeries
   <chr>       
 1 ACCEQ       
 2 ADANIENTEQ  
 3 ADANIPORTSEQ
 4 ADANIPOWEREQ
 5 AJANTPHARMEQ
 6 ALBKEQ      
 7 AMARAJABATEQ
 8 AMBUJACEMEQ 
 9 ANDHRABANKEQ
10 APOLLOHOSPEQ
# ... with 198 more rows
…
    Hi,
    
    You will be hard pressed to get helpful answers as you have not provided any way for list readers to replicate your data and code.  Check out this https://rseek.org/?q=reproducible+example
    
    On the other hand, ...
    
    (1)  I have a hunch that one place you are getting tripped up by your effort to treat IDT as a regular data.frame.  In fact, read_excel(), I'm guessing from the readxl package, returns a tibble.  When you subset a tibble like you have with...
    
    leq <- IDT[,1]
    
    ... you get a 1-column tibble...
    
    > leq
    # A tibble: 208 x 1
       SymbolSeries
       <chr>       
     1 ACCEQ       
     2 ADANIENTEQ  
     3 ADANIPORTSEQ
     4 ADANIPOWEREQ
     5 AJANTPHARMEQ
     6 ALBKEQ      
     7 AMARAJABATEQ
     8 AMBUJACEMEQ 
     9 ANDHRABANKEQ
    10 APOLLOHOSPEQ
    # ... with 198 more rows
…
