…
The mixed design is unbalanced as follows:

1. within-subjects factor: Time 1, Time 2;
2. between-subjects factor: Condition 1 (ordinary; n = 64), Condition 2
(extraordinary; n = 66).

I imported the data and transformed it into long format.

    library(broom)
    library(car)
    library(nlme)
    library(tidyverse)

    > zhang_long[, 1:4]
    # A tibble: 260 x 4
       condition subject_id extra_time extra_rating
       <fct>     <fct>      <fct>             <dbl>
     1 ordinary  1          t1_extra              1
     2 ordinary  2          t1_extra              3
     3 ordinary  3          t1_extra              1
     4 ordinary  4          t1_extra              1
     5 ordinary  5          t1_extra              5
     6 ordinary  6          t1_extra              2
     7 ordinary  7          t1_extra              2
     8 ordinary  8          t1_extra              3
     9 ordinary  9          t1_extra              4
    10 ordinary  10         t1_extra              6
    # ... with 250 more rows
…
