…
From vodvo@ @end|ng |rom zoho@com  Sun Oct 13 19:03:36 2019
From: vodvo@ @end|ng |rom zoho@com (vod vos)
Date: Sun, 13 Oct 2019 10:03:36 -0700
Subject: [R] Can nested data frame be used in machine learning?
Message-ID: <16dc6134c8e.c87c29c581401.2493681089749825846@zoho.com>

Hello,

If we got a data frame like below, how to use "data" to predict type, 
 if "data" is another data frame (called nested data frame):


by_subject
#> # A tibble: 1000 x 3
#>   subject            type       data             
#>   <fct>                <fct>      <list>           
#> 1 subject1      aa            <tibble [100 ? 10]>
#> 2 subject2      bb           <tibble [100 ? 10]>
#> 3 subject3      cc            <tibble [100 ? 10]>
#> # ? with 997 more rows
…
On Sun, Oct 13, 2019 at 10:04 AM vod vos via R-help <r-help at r-project.org>
wrote:

> Hello,
>
> If we got a data frame like below, how to use "data" to predict type,
>  if "data" is another data frame (called nested data frame):
>
>
> by_subject
> #> # A tibble: 1000 x 3
> #>   subject            type       data
> #>   <fct>                <fct>      <list>
> #> 1 subject1      aa            <tibble [100 ? 10]>
> #> 2 subject2      bb           <tibble [100 ? 10]>
> #> 3 subject3      cc            <tibble [100 ? 10]>
> #> # ? with 997 more rows
…
predict doesn't know about nesting. You can either unnest or use lapply or purrr:map to create new nested data frames with predicted results, but it is up to you to decide where you want to put the results.

On October 13, 2019 10:03:36 AM PDT, vod vos via R-help <r-help at r-project.org> wrote:
>Hello,
>
>If we got a data frame like below, how to use "data" to predict type, 
> if "data" is another data frame (called nested data frame):
>
>
>by_subject
>#> # A tibble: 1000 x 3
>#>   subject            type       data             
>#>   <fct>                <fct>      <list>           
>#> 1 subject1      aa            <tibble [100 ? 10]>
>#> 2 subject2      bb           <tibble [100 ? 10]>
>#> 3 subject3      cc            <tibble [100 ? 10]>
>#> # ? with 997 more rows
…
