…
>
> Content-Type: text/plain; charset="windows-1252"
>
> I ran this routine but I was thinking there must be a more elegant way of
> doing this.
>
>
> #
> https://community.rstudio.com/t/how-to-average-mean-variables-in-r-based-on-the-level-of-another-variable-and-save-this-as-a-new-variable/8764/8
>
> hcd2tmp2_summmary <- hcd2tmp2 %>%
>   select(.) %>%
>   group_by(Procedure_Code1) %>%
>   summarize(average = mean(Allowed_Amt))
> # A tibble: 131 x 2
> # Procedure_Code1 average
> # <fct>             <dbl>
> # 1 A9606            57785.
> # 2 J0129             5420.
> # 3 J0178             4700.
> # 4 J0180            13392.
> # 5 J0202            56328.
> # 6 J0256            17366.
> # 7 J0257             7563.
> # 8 J0485             2450.
> # 9 J0490             6398.
> # 10 J0585            4492.
> # ... with 121 more rows
…
>>
>> Content-Type: text/plain; charset="windows-1252"
>>
>> I ran this routine but I was thinking there must be a more elegant way of
>> doing this.
>>
>>
>> #
>> https://community.rstudio.com/t/how-to-average-mean-variables-in-r-based-on-the-level-of-another-variable-and-save-this-as-a-new-variable/8764/8
>>
>> hcd2tmp2_summmary <- hcd2tmp2 %>%
>>    select(.) %>%
>>    group_by(Procedure_Code1) %>%
>>    summarize(average = mean(Allowed_Amt))
>> # A tibble: 131 x 2
>> # Procedure_Code1 average
>> # <fct>             <dbl>
>> # 1 A9606            57785.
>> # 2 J0129             5420.
>> # 3 J0178             4700.
>> # 4 J0180            13392.
>> # 5 J0202            56328.
>> # 6 J0256            17366.
>> # 7 J0257             7563.
>> # 8 J0485             2450.
>> # 9 J0490             6398.
>> # 10 J0585            4492.
>> # ... with 121 more rows
…
