…
as_tibble(ednet)

# A tibble: 892 x 2
# Date2      NetEditRev
# <date>          <dbl>
#   1 2017-01-01     -923.
# 2 2017-01-02    19222.
# 3 2017-01-03    -8397.
# 4 2017-01-04    37697.
# 5 2017-01-05    46075.
# 6 2017-01-06    38329.
# 7 2017-01-07     3111.
# 8 2017-01-08       21.4
# 9 2017-01-09    63570.
# 10 2017-01-10    50777
# ... with 882 more rows
…
> 26: 2017-01-26   51462.66
> 27: 2017-01-27   46852.37
> 28: 2017-01-28    2396.67
> 29: 2017-01-29    2051.62
> 30: 2017-01-30   72561.32
> 31: 2017-01-31   69630.69
> 32: 2017-02-01  -17304.22
> 33: 2017-02-02   11773.84
> 34: 2017-02-03   20703.69
> 35: 2017-02-04    2762.87
> 
> 
> as_tibble(ednet)
> 
> # A tibble: 892 x 2
> # Date2      NetEditRev
> # <date>          <dbl>
> #   1 2017-01-01     -923.
> # 2 2017-01-02    19222.
> # 3 2017-01-03    -8397.
> # 4 2017-01-04    37697.
> # 5 2017-01-05    46075.
> # 6 2017-01-06    38329.
> # 7 2017-01-07     3111.
> # 8 2017-01-08       21.4
> # 9 2017-01-09    63570.
> # 10 2017-01-10    50777
> # ... with 882 more rows
…
> 26: 2017-01-26 51462.66
> 27: 2017-01-27 46852.37
> 28: 2017-01-28 2396.67
> 29: 2017-01-29 2051.62
> 30: 2017-01-30 72561.32
> 31: 2017-01-31 69630.69
> 32: 2017-02-01 -17304.22
> 33: 2017-02-02 11773.84
> 34: 2017-02-03 20703.69
> 35: 2017-02-04 2762.87
>
>
> as_tibble(ednet)
>
> # A tibble: 892 x 2
> # Date2 NetEditRev
> # <date> <dbl>
> # 1 2017-01-01 -923.
> # 2 2017-01-02 19222.
> # 3 2017-01-03 -8397.
> # 4 2017-01-04 37697.
> # 5 2017-01-05 46075.
> # 6 2017-01-06 38329.
> # 7 2017-01-07 3111.
> # 8 2017-01-08 21.4
> # 9 2017-01-09 63570.
> # 10 2017-01-10 50777
> # ... with 882 more rows
…
> 26: 2017-01-26 51462.66
> 27: 2017-01-27 46852.37
> 28: 2017-01-28 2396.67
> 29: 2017-01-29 2051.62
> 30: 2017-01-30 72561.32
> 31: 2017-01-31 69630.69
> 32: 2017-02-01 -17304.22
> 33: 2017-02-02 11773.84
> 34: 2017-02-03 20703.69
> 35: 2017-02-04 2762.87
>
>
> as_tibble(ednet)
>
> # A tibble: 892 x 2
> # Date2 NetEditRev
> # <date> <dbl>
> # 1 2017-01-01 -923.
> # 2 2017-01-02 19222.
> # 3 2017-01-03 -8397.
> # 4 2017-01-04 37697.
> # 5 2017-01-05 46075.
> # 6 2017-01-06 38329.
> # 7 2017-01-07 3111.
> # 8 2017-01-08 21.4
> # 9 2017-01-09 63570.
> # 10 2017-01-10 50777
> # ... with 882 more rows
…
>> 26: 2017-01-26 51462.66
>> 27: 2017-01-27 46852.37
>> 28: 2017-01-28 2396.67
>> 29: 2017-01-29 2051.62
>> 30: 2017-01-30 72561.32
>> 31: 2017-01-31 69630.69
>> 32: 2017-02-01 -17304.22
>> 33: 2017-02-02 11773.84
>> 34: 2017-02-03 20703.69
>> 35: 2017-02-04 2762.87
>>
>>
>> as_tibble(ednet)
>>
>> # A tibble: 892 x 2
>> # Date2 NetEditRev
>> # <date> <dbl>
>> # 1 2017-01-01 -923.
>> # 2 2017-01-02 19222.
>> # 3 2017-01-03 -8397.
>> # 4 2017-01-04 37697.
>> # 5 2017-01-05 46075.
>> # 6 2017-01-06 38329.
>> # 7 2017-01-07 3111.
>> # 8 2017-01-08 21.4
>> # 9 2017-01-09 63570.
>> # 10 2017-01-10 50777
>> # ... with 882 more rows
…
>> 26: 2017-01-26 51462.66
>> 27: 2017-01-27 46852.37
>> 28: 2017-01-28 2396.67
>> 29: 2017-01-29 2051.62
>> 30: 2017-01-30 72561.32
>> 31: 2017-01-31 69630.69
>> 32: 2017-02-01 -17304.22
>> 33: 2017-02-02 11773.84
>> 34: 2017-02-03 20703.69
>> 35: 2017-02-04 2762.87
>>
>>
>> as_tibble(ednet)
>>
>> # A tibble: 892 x 2
>> # Date2 NetEditRev
>> # <date> <dbl>
>> # 1 2017-01-01 -923.
>> # 2 2017-01-02 19222.
>> # 3 2017-01-03 -8397.
>> # 4 2017-01-04 37697.
>> # 5 2017-01-05 46075.
>> # 6 2017-01-06 38329.
>> # 7 2017-01-07 3111.
>> # 8 2017-01-08 21.4
>> # 9 2017-01-09 63570.
>> # 10 2017-01-10 50777
>> # ... with 882 more rows
…
The estimates begin at 2019-06-12 through 2019-09-11 so I want to add vline at 2019-06-11

Here are some data particulars:

summary(ednet)
#Date2              NetEditRev
# Min.   :2017-01-01   Min.   :-176182.7500
# 1st Qu.:2017-09-03   1st Qu.:   2584.1825
# Median :2018-05-07   Median :  49671.7200
# Mean   :2018-05-07   Mean   :  46078.4093
# 3rd Qu.:2019-01-08   3rd Qu.:  77373.0000
# Max.   :2019-09-11   Max.   : 164891.2500

as_tibble(ednet)
# A tibble: 984 x 2
# Date2      NetEditRev
# <date>          <dbl>
# 1 2017-01-01     -923.
# 2 2017-01-02    19222.
# 3 2017-01-03    -8397.
# 4 2017-01-04    37697.
# 5 2017-01-05    46075.
# 6 2017-01-06    38329.
# 7 2017-01-07     3111.
# 8 2017-01-08       21.4
# 9 2017-01-09    63570.
# 10 2017-01-10    50777
# ... with 974 more rows
…
> at 2019-06-11
>
> Here are some data particulars:
>
> summary(ednet)
> #Date2              NetEditRev
> # Min.   :2017-01-01   Min.   :-176182.7500
> # 1st Qu.:2017-09-03   1st Qu.:   2584.1825
> # Median :2018-05-07   Median :  49671.7200
> # Mean   :2018-05-07   Mean   :  46078.4093
> # 3rd Qu.:2019-01-08   3rd Qu.:  77373.0000
> # Max.   :2019-09-11   Max.   : 164891.2500
>
> as_tibble(ednet)
> # A tibble: 984 x 2
> # Date2      NetEditRev
> # <date>          <dbl>
> # 1 2017-01-01     -923.
> # 2 2017-01-02    19222.
> # 3 2017-01-03    -8397.
> # 4 2017-01-04    37697.
> # 5 2017-01-05    46075.
> # 6 2017-01-06    38329.
> # 7 2017-01-07     3111.
> # 8 2017-01-08       21.4
> # 9 2017-01-09    63570.
> # 10 2017-01-10    50777
> # ... with 974 more rows
…
library(dplyr)
library(lubridate)

## create some example data for 36 months from 2010
d <- seq(from=as.Date("2010-01-01"),to=as.Date("2012-12-31"),by="1 day")
conc <- runif(length(d)) # concentrations
df <- data.frame( dt=d, conc=conc)
df2 <- dplyr::mutate( df, wkpair=as.integer(floor((0:(nrow(df)-1))/14)) )
df3 <- dplyr::group_by(df2,wkpair) %>%
       dplyr::summarise(from=min(dt), to=max(dt), maxconc=max(conc)) %>%
       dplyr::select(from,to,maxconc)
df3

# A tibble: 79 x 3
   from       to         maxconc
   <date>     <date>       <dbl>
 1 2010-01-01 2010-01-14   0.928
 2 2010-01-15 2010-01-28   0.834
 3 2010-01-29 2010-02-11   0.989
 4 2010-02-12 2010-02-25   0.983
 5 2010-02-26 2010-03-11   0.898
 6 2010-03-12 2010-03-25   0.864
 7 2010-03-26 2010-04-08   0.920
 8 2010-04-09 2010-04-22   0.925
 9 2010-04-23 2010-05-06   0.998
10 2010-05-07 2010-05-20   0.761
# ... with 69 more rows
…
> 
> library(dplyr)
> library(lubridate)
> 
> ## create some example data for 36 months from 2010
> d <- seq(from=as.Date("2010-01-01"),to=as.Date("2012-12-31"),by="1 day")
> conc <- runif(length(d)) # concentrations
> df <- data.frame( dt=d, conc=conc)
> df2 <- dplyr::mutate( df, wkpair=as.integer(floor((0:(nrow(df)-1))/14)) )
> df3 <- dplyr::group_by(df2,wkpair) %>%
>       dplyr::summarise(from=min(dt), to=max(dt), maxconc=max(conc)) %>%
>       dplyr::select(from,to,maxconc)
> df3
> 
> # A tibble: 79 x 3
>   from       to         maxconc
>   <date>     <date>       <dbl>
> 1 2010-01-01 2010-01-14   0.928
> 2 2010-01-15 2010-01-28   0.834
> 3 2010-01-29 2010-02-11   0.989
> 4 2010-02-12 2010-02-25   0.983
> 5 2010-02-26 2010-03-11   0.898
> 6 2010-03-12 2010-03-25   0.864
> 7 2010-03-26 2010-04-08   0.920
> 8 2010-04-09 2010-04-22   0.925
> 9 2010-04-23 2010-05-06   0.998
> 10 2010-05-07 2010-05-20   0.761
> # ... with 69 more rows
…
> >
> > library(dplyr)
> > library(lubridate)
> >
> > ## create some example data for 36 months from 2010
> > d <- seq(from=as.Date("2010-01-01"),to=as.Date("2012-12-31"),by="1 day")
> > conc <- runif(length(d)) # concentrations
> > df <- data.frame( dt=d, conc=conc)
> > df2 <- dplyr::mutate( df, wkpair=as.integer(floor((0:(nrow(df)-1))/14)) )
> > df3 <- dplyr::group_by(df2,wkpair) %>%
> >       dplyr::summarise(from=min(dt), to=max(dt), maxconc=max(conc)) %>%
> >       dplyr::select(from,to,maxconc)
> > df3
> >
> > # A tibble: 79 x 3
> >   from       to         maxconc
> >   <date>     <date>       <dbl>
> > 1 2010-01-01 2010-01-14   0.928
> > 2 2010-01-15 2010-01-28   0.834
> > 3 2010-01-29 2010-02-11   0.989
> > 4 2010-02-12 2010-02-25   0.983
> > 5 2010-02-26 2010-03-11   0.898
> > 6 2010-03-12 2010-03-25   0.864
> > 7 2010-03-26 2010-04-08   0.920
> > 8 2010-04-09 2010-04-22   0.925
> > 9 2010-04-23 2010-05-06   0.998
> > 10 2010-05-07 2010-05-20   0.761
> > # ... with 69 more rows
…
> >
> > library(dplyr)
> > library(lubridate)
> >
> > ## create some example data for 36 months from 2010
> > d <- seq(from=as.Date("2010-01-01"),to=as.Date("2012-12-31"),by="1 day")
> > conc <- runif(length(d)) # concentrations
> > df <- data.frame( dt=d, conc=conc)
> > df2 <- dplyr::mutate( df, wkpair=as.integer(floor((0:(nrow(df)-1))/14)) )
> > df3 <- dplyr::group_by(df2,wkpair) %>%
> >       dplyr::summarise(from=min(dt), to=max(dt), maxconc=max(conc)) %>%
> >       dplyr::select(from,to,maxconc)
> > df3
> >
> > # A tibble: 79 x 3
> >   from       to         maxconc
> >   <date>     <date>       <dbl>
> > 1 2010-01-01 2010-01-14   0.928
> > 2 2010-01-15 2010-01-28   0.834
> > 3 2010-01-29 2010-02-11   0.989
> > 4 2010-02-12 2010-02-25   0.983
> > 5 2010-02-26 2010-03-11   0.898
> > 6 2010-03-12 2010-03-25   0.864
> > 7 2010-03-26 2010-04-08   0.920
> > 8 2010-04-09 2010-04-22   0.925
> > 9 2010-04-23 2010-05-06   0.998
> > 10 2010-05-07 2010-05-20   0.761
> > # ... with 69 more rows
…
