…
trnd1_tbla <- trnd1_tbl %>% top_n(25)
print(trnd1_tbla)
head(trnd1_tbla,n=25)

A tibble: 25 x 5
   city      state Basecountsum Basecount2 prop_of_total
   <fct>     <fct>        <dbl>      <dbl>         <dbl>
 1 ATLANTA   GA            2352         12       0.00510
 2 BRADENTON FL            2352          8       0.00340
 3 BROOKLYN  NY            2352         30       0.0128 
 4 CHARLOTTE NC            2352          8       0.00340
 5 CHICAGO   IL            2352         17       0.00723
 6 COLUMBUS  OH            2352         11       0.00468
 7 CUMMING   GA            2352          8       0.00340
 8 DALLAS    TX            2352          8       0.00340
 9 ERIE      PA            2352         12       0.00510
10 HOUSTON   TX            2352         12       0.00510
# ... with 15 more rows
…
> 18    ME      MARS HILL 46.56580 -67.89006
> 19    ME       FREEPORT 43.85302 -70.03726
> 20    ME         EASTON 46.64143 -67.91203
> 21    ME     WATERVILLE 44.53621 -69.65913
> 22    ME      BRUNSWICK 43.87771 -69.96297
> 23    ME      BRUNSWICK 43.91719 -69.89905
> 24    ME      BUCKSPORT 44.60665 -68.81892
> 25    ME        FAYETTE 44.46380 -70.12047
>
>
> trnd1_tbla <- trnd1_tbl %>% top_n(25)
> print(trnd1_tbla)
> head(trnd1_tbla,n=25)
>
> A tibble: 25 x 5
>    city      state Basecountsum Basecount2 prop_of_total
>    <fct>     <fct>        <dbl>      <dbl>         <dbl>
>  1 ATLANTA   GA            2352         12       0.00510
>  2 BRADENTON FL            2352          8       0.00340
>  3 BROOKLYN  NY            2352         30       0.0128
>  4 CHARLOTTE NC            2352          8       0.00340
>  5 CHICAGO   IL            2352         17       0.00723
>  6 COLUMBUS  OH            2352         11       0.00468
>  7 CUMMING   GA            2352          8       0.00340
>  8 DALLAS    TX            2352          8       0.00340
>  9 ERIE      PA            2352         12       0.00510
> 10 HOUSTON   TX            2352         12       0.00510
> # ... with 15 more rows
…
trnd1_tbla <- trnd1_tbl %>% top_n(25)
print(trnd1_tbla)
head(trnd1_tbla,n=25)

A tibble: 25 x 5
   city      state Basecountsum Basecount2 prop_of_total
   <fct>     <fct>        <dbl>      <dbl>         <dbl>
 1 ATLANTA   GA            2352         12       0.00510
 2 BRADENTON FL            2352          8       0.00340
 3 BROOKLYN  NY            2352         30       0.0128
 4 CHARLOTTE NC            2352          8       0.00340
 5 CHICAGO   IL            2352         17       0.00723
 6 COLUMBUS  OH            2352         11       0.00468
 7 CUMMING   GA            2352          8       0.00340
 8 DALLAS    TX            2352          8       0.00340
 9 ERIE      PA            2352         12       0.00510
10 HOUSTON   TX            2352         12       0.00510
# ... with 15 more rows
…
