…
data
## # A tibble: 432 x 6
##    month  year stage  plot        ndvi      litter
##    <dbl> <dbl> <chr> <dbl>       <dbl>       <dbl>
##  1     4     1 Early     1  0.30864501 -2.45986132
##  2     5     1 Early     1  0.17898780 -3.22690800
##  3     6     1 Early     1  0.00871899  0.07673787
##  4     7     1 Early     1 -0.20991200 -1.25453724
##  5     8     1 Early     1 -0.21325549 -2.76453008
##  6     9     1 Early     1 -0.21593250 -4.44981737
##  7    10     1 Early     1 -0.30416150 -4.19808639
##  8    11     1 Early     1 -0.10118885 -5.47412419
##  9    12     1 Early     1  0.22365620 -3.27540914
## 10     1     1 Early     1  0.31648629 -2.02710415
## # ... with 422 more rows
…
