…
## ---------------------------------- ##
## have a look                        ##
## ---------------------------------- ##
dat
## ,----
## | # A tibble: 475 x 4
## |    patient group fu    riskfactor
## |    <fct>   <fct> <fct> <fct>
## |  1 p001    wt    BL    norisk
## |  2 p002    wt    BL    norisk
## |  3 p003    wt    BL    norisk
## |  4 p004    wt    BL    norisk
## |  5 p005    wt    BL    norisk
## |  6 p006    wt    BL    norisk
## |  7 p007    wt    BL    norisk
## |  8 p008    wt    BL    norisk
## |  9 p009    wt    BL    risk
## | 10 p010    wt    BL    norisk
## | # ... with 465 more rows
…
## ---------------------------------- ##
## load the data                      ##
## ---------------------------------- ##
dat <- pastebin::get_paste("Xgwgtb7j") %>% as.character %>% gsub("\r\n",
"", .) %>% parse(text = .) %>% eval



## ---------------------------------- ##
## have a look                        ##
## ---------------------------------- ##
dat
## ,----
## | # A tibble: 475 x 4
## |    patient group fu    riskfactor
## |    <fct>   <fct> <fct> <fct>
## |  1 p001    wt    BL    norisk
## |  2 p002    wt    BL    norisk
## |  3 p003    wt    BL    norisk
## |  4 p004    wt    BL    norisk
## |  5 p005    wt    BL    norisk
## |  6 p006    wt    BL    norisk
## |  7 p007    wt    BL    norisk
## |  8 p008    wt    BL    norisk
## |  9 p009    wt    BL    risk
## | 10 p010    wt    BL    norisk
## | # ... with 465 more rows
…
> ## ---------------------------------- ##
> dat <- pastebin::get_paste("Xgwgtb7j") %>%
>   as.character %>%
>   gsub("\r\n", "", .) %>%
>   parse(text = .) %>%
>   eval
> 
> 
> 
> ## ---------------------------------- ##
> ## have a look                        ##
> ## ---------------------------------- ##
> dat
> ## ,----
> ## | # A tibble: 475 x 4
> ## |    patient group fu    riskfactor
> ## |    <fct>   <fct> <fct> <fct>
> ## |  1 p001    wt    BL    norisk
> ## |  2 p002    wt    BL    norisk
> ## |  3 p003    wt    BL    norisk
> ## |  4 p004    wt    BL    norisk
> ## |  5 p005    wt    BL    norisk
> ## |  6 p006    wt    BL    norisk
> ## |  7 p007    wt    BL    norisk
> ## |  8 p008    wt    BL    norisk
> ## |  9 p009    wt    BL    risk
> ## | 10 p010    wt    BL    norisk
> ## | # ... with 465 more rows
…
>
> ## ---------------------------------- ##
> ## load the data                      ##
> ## ---------------------------------- ##
> dat <- pastebin::get_paste("Xgwgtb7j") %>% as.character %>% gsub("\r\n",
> "", .) %>% parse(text = .) %>% eval
>
>
>
> ## ---------------------------------- ##
> ## have a look                        ##
> ## ---------------------------------- ##
> dat
> ## ,----
> ## | # A tibble: 475 x 4
> ## |    patient group fu    riskfactor
> ## |    <fct>   <fct> <fct> <fct>
> ## |  1 p001    wt    BL    norisk
> ## |  2 p002    wt    BL    norisk
> ## |  3 p003    wt    BL    norisk
> ## |  4 p004    wt    BL    norisk
> ## |  5 p005    wt    BL    norisk
> ## |  6 p006    wt    BL    norisk
> ## |  7 p007    wt    BL    norisk
> ## |  8 p008    wt    BL    norisk
> ## |  9 p009    wt    BL    risk
> ## | 10 p010    wt    BL    norisk
> ## | # ... with 465 more rows
…
## ---------------------------------- ##
## have a look                        ##
## ---------------------------------- ##
dat
## ,----
## | # A tibble: 475 x 4
## |    patient group fu    riskfactor
## |    <fct>   <fct> <fct> <fct>
## |  1 p001    wt    BL    norisk
## |  2 p002    wt    BL    norisk
## |  3 p003    wt    BL    norisk
## |  4 p004    wt    BL    norisk
## |  5 p005    wt    BL    norisk
## |  6 p006    wt    BL    norisk
## |  7 p007    wt    BL    norisk
## |  8 p008    wt    BL    norisk
## |  9 p009    wt    BL    risk
## | 10 p010    wt    BL    norisk
## | # ... with 465 more rows
…
