…
boundary (singular) fit: see ?isSingular
> fit <- glmer(missRand ~ Item, family = binomial, data = longDat)
Error: No random effects terms specified in formula
> fit <- glmer(missRand ~ Item | ID, family = binomial, data = longDat)
boundary (singular) fit: see ?isSingular
> fit <- glmer(factor(missRand) ~ Item | ID, family = binomial, data = longDat)
boundary (singular) fit: see ?isSingular
> fit <- glmer(missRand ~ Item | ID, family = "logistic", data = longDat)
Error in get(family, mode = "function", envir = parent.frame(2)) : 
  object 'logistic' of mode 'function' was not found
> fit <- glmer(missRand ~ Item + (1 | ID), family = "binomial", data = longDat)
boundary (singular) fit: see ?isSingular
> ?glmer
> longDat
# A tibble: 474 x 5
# Groups:   ID [237]
   ID       Item     Score missing missRand
   <chr>    <chr>    <dbl>   <dbl>    <int>
 1 ALCA0001 YPCORE01     1       0        0
 2 ALCA0001 YPCORE02     0       0        1
 3 ALCA0004 YPCORE01     1       0        0
 4 ALCA0004 YPCORE02     0       0        1
 5 ALCA0007 YPCORE01     2       0        0
 6 ALCA0007 YPCORE02     1       0        0
 7 ALCA0012 YPCORE01     3       0        1
 8 ALCA0012 YPCORE02     1       0        1
 9 ALCA0013 YPCORE01     4       0        1
10 ALCA0013 YPCORE02     3       0        1
# ? with 464 more rows
…
             1   2   3   4   5   6   7   8   9  10
  YPCORE01 237   0   0   0   0   0   0   0   0   0
  YPCORE02   0 237   0   0   0   0   0   0   0   0
  YPCORE03   0   0 237   0   0   0   0   0   0   0
  YPCORE04   0   0   0 237   0   0   0   0   0   0
  YPCORE05   0   0   0   0 237   0   0   0   0   0
  YPCORE06   0   0   0   0   0 237   0   0   0   0
  YPCORE07   0   0   0   0   0   0 237   0   0   0
  YPCORE08   0   0   0   0   0   0   0 237   0   0
  YPCORE09   0   0   0   0   0   0   0   0 237   0
  YPCORE10   0   0   0   0   0   0   0   0   0 237
> longDat %>%
+   mutate(missRand = rbinom(1, 1, .5))
# A tibble: 2,370 x 5
# Groups:   ID [237]
   ID       Item     Score missing missRand
   <chr>    <chr>    <dbl>   <dbl>    <int>
 1 ALCA0001 YPCORE01     1       0        1
 2 ALCA0001 YPCORE02     0       0        1
 3 ALCA0001 YPCORE03     0       0        1
 4 ALCA0001 YPCORE04     0       0        1
 5 ALCA0001 YPCORE05     0       0        1
 6 ALCA0001 YPCORE06     1       0        1
 7 ALCA0001 YPCORE07     0       0        1
 8 ALCA0001 YPCORE08     0       0        1
 9 ALCA0001 YPCORE09     0       0        1
10 ALCA0001 YPCORE10     0       0        1
# ? with 2,360 more rows
> table(longDat$missRand)

   0    1 
1211 1159 
> longDat %>%
+   mutate(missRand = rbinom(1, 1, .5),
+          missReg = rbinom(1, 1, as.numeric(factor(Item))/11))
# A tibble: 2,370 x 6
# Groups:   ID [237]
   ID       Item     Score missing missRand missReg
   <chr>    <chr>    <dbl>   <dbl>    <int>   <int>
 1 ALCA0001 YPCORE01     1       0        1       0
 2 ALCA0001 YPCORE02     0       0        1       0
 3 ALCA0001 YPCORE03     0       0        1       0
 4 ALCA0001 YPCORE04     0       0        1       0
 5 ALCA0001 YPCORE05     0       0        1       0
 6 ALCA0001 YPCORE06     1       0        1       0
 7 ALCA0001 YPCORE07     0       0        1       0
 8 ALCA0001 YPCORE08     0       0        1       0
 9 ALCA0001 YPCORE09     0       0        1       0
10 ALCA0001 YPCORE10     0       0        1       0
# ? with 2,360 more rows
…
> Error: No random effects terms specified in formula
> > fit <- glmer(missRand ~ Item | ID, family = binomial, data = longDat)
> boundary (singular) fit: see ?isSingular
> > fit <- glmer(factor(missRand) ~ Item | ID, family = binomial, data =
> longDat)
> boundary (singular) fit: see ?isSingular
> > fit <- glmer(missRand ~ Item | ID, family = "logistic", data = longDat)
> Error in get(family, mode = "function", envir = parent.frame(2)) :
>   object 'logistic' of mode 'function' was not found
> > fit <- glmer(missRand ~ Item + (1 | ID), family = "binomial", data =
> longDat)
> boundary (singular) fit: see ?isSingular
> > ?glmer
> > longDat
> # A tibble: 474 x 5
> # Groups:   ID [237]
>    ID       Item     Score missing missRand
>    <chr>    <chr>    <dbl>   <dbl>    <int>
>  1 ALCA0001 YPCORE01     1       0        0
>  2 ALCA0001 YPCORE02     0       0        1
>  3 ALCA0004 YPCORE01     1       0        0
>  4 ALCA0004 YPCORE02     0       0        1
>  5 ALCA0007 YPCORE01     2       0        0
>  6 ALCA0007 YPCORE02     1       0        0
>  7 ALCA0012 YPCORE01     3       0        1
>  8 ALCA0012 YPCORE02     1       0        1
>  9 ALCA0013 YPCORE01     4       0        1
> 10 ALCA0013 YPCORE02     3       0        1
> # ? with 464 more rows
…
>
>              1   2   3   4   5   6   7   8   9  10
>   YPCORE01 237   0   0   0   0   0   0   0   0   0
>   YPCORE02   0 237   0   0   0   0   0   0   0   0
>   YPCORE03   0   0 237   0   0   0   0   0   0   0
>   YPCORE04   0   0   0 237   0   0   0   0   0   0
>   YPCORE05   0   0   0   0 237   0   0   0   0   0
>   YPCORE06   0   0   0   0   0 237   0   0   0   0
>   YPCORE07   0   0   0   0   0   0 237   0   0   0
>   YPCORE08   0   0   0   0   0   0   0 237   0   0
>   YPCORE09   0   0   0   0   0   0   0   0 237   0
>   YPCORE10   0   0   0   0   0   0   0   0   0 237
> > longDat %>%
> +   mutate(missRand = rbinom(1, 1, .5))
> # A tibble: 2,370 x 5
> # Groups:   ID [237]
>    ID       Item     Score missing missRand
>    <chr>    <chr>    <dbl>   <dbl>    <int>
>  1 ALCA0001 YPCORE01     1       0        1
>  2 ALCA0001 YPCORE02     0       0        1
>  3 ALCA0001 YPCORE03     0       0        1
>  4 ALCA0001 YPCORE04     0       0        1
>  5 ALCA0001 YPCORE05     0       0        1
>  6 ALCA0001 YPCORE06     1       0        1
>  7 ALCA0001 YPCORE07     0       0        1
>  8 ALCA0001 YPCORE08     0       0        1
>  9 ALCA0001 YPCORE09     0       0        1
> 10 ALCA0001 YPCORE10     0       0        1
> # ? with 2,360 more rows
> > table(longDat$missRand)
>
>    0    1
> 1211 1159
> > longDat %>%
> +   mutate(missRand = rbinom(1, 1, .5),
> +          missReg = rbinom(1, 1, as.numeric(factor(Item))/11))
> # A tibble: 2,370 x 6
> # Groups:   ID [237]
>    ID       Item     Score missing missRand missReg
>    <chr>    <chr>    <dbl>   <dbl>    <int>   <int>
>  1 ALCA0001 YPCORE01     1       0        1       0
>  2 ALCA0001 YPCORE02     0       0        1       0
>  3 ALCA0001 YPCORE03     0       0        1       0
>  4 ALCA0001 YPCORE04     0       0        1       0
>  5 ALCA0001 YPCORE05     0       0        1       0
>  6 ALCA0001 YPCORE06     1       0        1       0
>  7 ALCA0001 YPCORE07     0       0        1       0
>  8 ALCA0001 YPCORE08     0       0        1       0
>  9 ALCA0001 YPCORE09     0       0        1       0
> 10 ALCA0001 YPCORE10     0       0        1       0
> # ? with 2,360 more rows
…
>> Error: No random effects terms specified in formula
>>> fit <- glmer(missRand ~ Item | ID, family = binomial, data = longDat)
>> boundary (singular) fit: see ?isSingular
>>> fit <- glmer(factor(missRand) ~ Item | ID, family = binomial, data =
>> longDat)
>> boundary (singular) fit: see ?isSingular
>>> fit <- glmer(missRand ~ Item | ID, family = "logistic", data = longDat)
>> Error in get(family, mode = "function", envir = parent.frame(2)) :
>>   object 'logistic' of mode 'function' was not found
>>> fit <- glmer(missRand ~ Item + (1 | ID), family = "binomial", data =
>> longDat)
>> boundary (singular) fit: see ?isSingular
>>> ?glmer
>>> longDat
>> # A tibble: 474 x 5
>> # Groups:   ID [237]
>>    ID       Item     Score missing missRand
>>    <chr>    <chr>    <dbl>   <dbl>    <int>
>>  1 ALCA0001 YPCORE01     1       0        0
>>  2 ALCA0001 YPCORE02     0       0        1
>>  3 ALCA0004 YPCORE01     1       0        0
>>  4 ALCA0004 YPCORE02     0       0        1
>>  5 ALCA0007 YPCORE01     2       0        0
>>  6 ALCA0007 YPCORE02     1       0        0
>>  7 ALCA0012 YPCORE01     3       0        1
>>  8 ALCA0012 YPCORE02     1       0        1
>>  9 ALCA0013 YPCORE01     4       0        1
>> 10 ALCA0013 YPCORE02     3       0        1
>> # ? with 464 more rows
…
>>> table(longDat$Item, as.numeric(factor(longDat$Item)))
>>              1   2   3   4   5   6   7   8   9  10
>>   YPCORE01 237   0   0   0   0   0   0   0   0   0
>>   YPCORE02   0 237   0   0   0   0   0   0   0   0
>>   YPCORE03   0   0 237   0   0   0   0   0   0   0
>>   YPCORE04   0   0   0 237   0   0   0   0   0   0
>>   YPCORE05   0   0   0   0 237   0   0   0   0   0
>>   YPCORE06   0   0   0   0   0 237   0   0   0   0
>>   YPCORE07   0   0   0   0   0   0 237   0   0   0
>>   YPCORE08   0   0   0   0   0   0   0 237   0   0
>>   YPCORE09   0   0   0   0   0   0   0   0 237   0
>>   YPCORE10   0   0   0   0   0   0   0   0   0 237
>>> longDat %>%
>> +   mutate(missRand = rbinom(1, 1, .5))
>> # A tibble: 2,370 x 5
>> # Groups:   ID [237]
>>    ID       Item     Score missing missRand
>>    <chr>    <chr>    <dbl>   <dbl>    <int>
>>  1 ALCA0001 YPCORE01     1       0        1
>>  2 ALCA0001 YPCORE02     0       0        1
>>  3 ALCA0001 YPCORE03     0       0        1
>>  4 ALCA0001 YPCORE04     0       0        1
>>  5 ALCA0001 YPCORE05     0       0        1
>>  6 ALCA0001 YPCORE06     1       0        1
>>  7 ALCA0001 YPCORE07     0       0        1
>>  8 ALCA0001 YPCORE08     0       0        1
>>  9 ALCA0001 YPCORE09     0       0        1
>> 10 ALCA0001 YPCORE10     0       0        1
>> # ? with 2,360 more rows
>>> table(longDat$missRand)
>>    0    1
>> 1211 1159
>>> longDat %>%
>> +   mutate(missRand = rbinom(1, 1, .5),
>> +          missReg = rbinom(1, 1, as.numeric(factor(Item))/11))
>> # A tibble: 2,370 x 6
>> # Groups:   ID [237]
>>    ID       Item     Score missing missRand missReg
>>    <chr>    <chr>    <dbl>   <dbl>    <int>   <int>
>>  1 ALCA0001 YPCORE01     1       0        1       0
>>  2 ALCA0001 YPCORE02     0       0        1       0
>>  3 ALCA0001 YPCORE03     0       0        1       0
>>  4 ALCA0001 YPCORE04     0       0        1       0
>>  5 ALCA0001 YPCORE05     0       0        1       0
>>  6 ALCA0001 YPCORE06     1       0        1       0
>>  7 ALCA0001 YPCORE07     0       0        1       0
>>  8 ALCA0001 YPCORE08     0       0        1       0
>>  9 ALCA0001 YPCORE09     0       0        1       0
>> 10 ALCA0001 YPCORE10     0       0        1       0
>> # ? with 2,360 more rows
…
